…
print(kelp_data)
```

```
## # A tibble: 210 × 15
##    site  season   npp_dry npp_carbon npp_nitrogen growth_rate_dry growth_rate_car…
##    <chr> <chr>      <dbl>      <dbl>        <dbl>           <dbl>            <dbl>
##  1 ABUR  3-Summer 0.0299    0.00845     0.000625           0.0266           0.0253
##  2 ABUR  4-Autumn 0.0188    0.00473     0.000409           0.0262           0.0254
##  3 AQUE  3-Summer 0.0377    0.00913     0.000361           0.0329           0.0298
##  4 AQUE  4-Autumn 0.0173    0.00452     0.000385           0.0221           0.0223
##  5 MOHK  3-Summer 0.0473    0.0129      0.000752           0.0348           0.0365
##  6 MOHK  4-Autumn 0.0228    0.00574     0.000363           0.0334           0.0321
##  7 ABUR  1-Winter 0.00659   0.00186     0.000122           0.0463           0.0478
##  8 ABUR  2-Spring 0.00393   0.00122     0.000104           0.0334           0.0347
##  9 ABUR  3-Summer 0.00249   0.000847    0.0000524          0.0281           0.0287
## 10 ABUR  4-Autumn 0.00329   0.000892    0.0000756          0.0354           0.0324
## # … with 200 more rows, and 8 more variables: growth_rate_nitrogen <dbl>,
## #   se_npp_dry <dbl>, se_npp_carbon <dbl>, se_npp_nitrogen <dbl>,
## #   se_growth_rate_dry <dbl>, se_growth_rate_carbon <dbl>,
## #   se_growth_rate_nitrogen <dbl>, year <dbl>
```
…
